{
  "db": {
    "name": "db",
    "connector": "memory"
  },
  "mongo-mlab": {
    "host": "ds141232.mlab.com",
    "port": 41232,
    "url": "mongodb://admin2:admin@ds141232.mlab.com:41232/transprt",
    "database": "transport",
    "password": "admin",
    "name": "mongo-mlab",
    "user": "admin2",
    "connector": "mongodb"
  }

}
